{
  "extends": [
    "tslint-react",
    "tslint:recommended"
  ],
  "rules": {
    "object-literal-sort-keys": {
      "severity": "warning",
      "options": "match-declaration-order"
    },
    "align": [
      true,
      "parameters",
      "statements"
    ],
    "interface-over-type-literal": true,
    "no-conditional-assignment": {
      "severity": "warning"
    },
    "no-return-await": true,
    "no-empty-interface": false,
    "await-promise": true,
    "promise-function-async": false,
    "arrow-parens": false,
    "ban": false,
    "ban-types": true,
    "class-name": true,
    "comment-format": [
      true,
      "check-space"
    ],
    "curly": {
      "options": [
        "as-needed"
      ],
      "severity": "warning"
    },
    "eofline": false,
    "forin": {
      "severity": "warning"
    },
    "indent": [
      true,
      "spaces"
    ],
    "interface-name": [
      true,
      "never-prefix"
    ],
    "jsdoc-format": true,
    "jsx-no-lambda": false,
    "jsx-no-multiline-js": false,
    "label-position": true,
    "max-line-length": {
      "options": {
        "ignore-pattern": "^import |^export {(.*?)}|class [a-zA-Z]+ implements |// |'|\"|`",
        "limit": 120
      },
      "severity": "warning"
    },
    "member-access": true,
    "member-ordering": {
      "options": {
        "alphabetize": true,
        "order": [
          "static-field",
          "static-method",
          "instance-field",
          "constructor",
          "instance-method",
          {
            "name": "render"
          }
        ]
      },
      "severity": "warning"
    },
    "no-any": false,
    "no-arg": true,
    "no-bitwise": true,
    "no-console": [
      false,
      "log",
      "error",
      "debug",
      "info",
      "time",
      "timeEnd",
      "trace"
    ],
    "no-duplicate-imports": true,
    "no-consecutive-blank-lines": true,
    "no-construct": true,
    "no-debugger": true,
    "no-duplicate-variable": true,
    "no-empty": true,
    "no-eval": true,
    "no-shadowed-variable": true,
    "no-string-literal": true,
    "no-switch-case-fall-through": true,
    "no-trailing-whitespace": false,
    "no-unused-expression": true,
    "no-use-before-declare": false,
    "one-line": [
      true,
      "check-catch",
      "check-else",
      "check-open-brace",
      "check-whitespace"
    ],
    "ordered-imports": [
      true,
      {
        "import-sources-order": "case-insensitive"
      }
    ],
    "one-variable-per-declaration": false,
    "quotemark": [
      true,
      "single",
      "jsx-double"
    ],
    "radix": true,
    "semicolon": [
      true,
      "always"
    ],
    "switch-default": false,
    "trailing-comma": false,
    "triple-equals": [
      true,
      "allow-null-check"
    ],
    "typedef": {
      "options": [
        "parameter",
        "property-declaration"
      ],
      "severity": "off"
    },
    "typedef-whitespace": [
      true,
      {
        "call-signature": "nospace",
        "index-signature": "nospace",
        "parameter": "nospace",
        "property-declaration": "nospace",
        "variable-declaration": "nospace"
      }
    ],
    "variable-name": [
      true,
      "ban-keywords",
      "check-format",
      "allow-leading-underscore",
      "allow-pascal-case"
    ],
    "whitespace": [
      true,
      "check-branch",
      "check-decl",
      "check-module",
      "check-operator",
      "check-separator",
      "check-type",
      "check-typecast"
    ],
    "no-namespace": [
      true,
      "allow-declarations"
    ]
  }
}